[
    {
        "key": "group_5d8e241a845b9",
        "title": "Baneri - Widget i Post\/Page",
        "fields": [
            {
                "key": "field_5da6cd5012cec",
                "label": "Above navigation",
                "name": "above_navigation",
                "type": "group",
                "instructions": "",
                "required": 0,
                "conditional_logic": 0,
                "wrapper": {
                    "width": "",
                    "class": "",
                    "id": ""
                },
                "layout": "block",
                "sub_fields": [
                    {
                        "key": "field_5da6cd7912ced",
                        "label": "Enable",
                        "name": "enable",
                        "type": "true_false",
                        "instructions": "",
                        "required": 0,
                        "conditional_logic": 0,
                        "wrapper": {
                            "width": "",
                            "class": "",
                            "id": ""
                        },
                        "message": "",
                        "default_value": 0,
                        "ui": 0,
                        "ui_on_text": "",
                        "ui_off_text": ""
                    },
                    {
                        "key": "field_5d9460e7c43ef",
                        "label": "Code",
                        "name": "above_navigation_code",
                        "type": "acf_code_field",
                        "instructions": "",
                        "required": 0,
                        "conditional_logic": [
                            [
                                {
                                    "field": "field_5da6cd7912ced",
                                    "operator": "==",
                                    "value": "1"
                                }
                            ]
                        ],
                        "wrapper": {
                            "width": "",
                            "class": "",
                            "id": ""
                        },
                        "default_value": "",
                        "placeholder": "",
                        "mode": "htmlmixed",
                        "theme": "material"
                    }
                ]
            },
            {
                "key": "field_5d94613ac43f0",
                "label": "Belove navigation",
                "name": "belove_navigation",
                "type": "group",
                "instructions": "",
                "required": 0,
                "conditional_logic": 0,
                "wrapper": {
                    "width": "",
                    "class": "",
                    "id": ""
                },
                "layout": "block",
                "sub_fields": [
                    {
                        "key": "field_5d946178c43f3",
                        "label": "Image",
                        "name": "image",
                        "type": "image",
                        "instructions": "",
                        "required": 0,
                        "conditional_logic": 0,
                        "wrapper": {
                            "width": "",
                            "class": "",
                            "id": ""
                        },
                        "return_format": "array",
                        "preview_size": "full",
                        "library": "all",
                        "min_width": "",
                        "min_height": "",
                        "min_size": "",
                        "max_width": "",
                        "max_height": "",
                        "max_size": "",
                        "mime_types": ""
                    },
                    {
                        "key": "field_5d946183c43f4",
                        "label": "URL",
                        "name": "url",
                        "type": "url",
                        "instructions": "",
                        "required": 0,
                        "conditional_logic": 0,
                        "wrapper": {
                            "width": "",
                            "class": "",
                            "id": ""
                        },
                        "default_value": "",
                        "placeholder": ""
                    }
                ]
            },
            {
                "key": "field_5d9d03ae8e8ff",
                "label": "Top sidebar widgets",
                "name": "top_sidebar_widgets",
                "type": "repeater",
                "instructions": "",
                "required": 0,
                "conditional_logic": 0,
                "wrapper": {
                    "width": "",
                    "class": "",
                    "id": ""
                },
                "collapsed": "",
                "min": 0,
                "max": 0,
                "layout": "table",
                "button_label": "Add new GTag widget",
                "sub_fields": [
                    {
                        "key": "field_5d9d03f68e900",
                        "label": "Widget Script and HTML",
                        "name": "widget_script_and_html",
                        "type": "acf_code_field",
                        "instructions": "",
                        "required": 0,
                        "conditional_logic": 0,
                        "wrapper": {
                            "width": "",
                            "class": "",
                            "id": ""
                        },
                        "default_value": "",
                        "placeholder": "",
                        "mode": "htmlmixed",
                        "theme": "material"
                    }
                ]
            },
            {
                "key": "field_5d8e242b5dbbf",
                "label": "Bottom sidebar widgets",
                "name": "sidebar_commercials",
                "type": "repeater",
                "instructions": "",
                "required": 0,
                "conditional_logic": 0,
                "wrapper": {
                    "width": "",
                    "class": "",
                    "id": ""
                },
                "collapsed": "",
                "min": 0,
                "max": 0,
                "layout": "table",
                "button_label": "",
                "sub_fields": [
                    {
                        "key": "field_5d94742e87a41",
                        "label": "Image",
                        "name": "widget_commercial_image",
                        "type": "image",
                        "instructions": "",
                        "required": 0,
                        "conditional_logic": 0,
                        "wrapper": {
                            "width": "",
                            "class": "",
                            "id": ""
                        },
                        "return_format": "array",
                        "preview_size": "full",
                        "library": "all",
                        "min_width": "",
                        "min_height": "",
                        "min_size": "",
                        "max_width": "",
                        "max_height": "",
                        "max_size": "",
                        "mime_types": ""
                    },
                    {
                        "key": "field_5d94743f87a42",
                        "label": "URL",
                        "name": "widget_commercial_url",
                        "type": "url",
                        "instructions": "",
                        "required": 0,
                        "conditional_logic": 0,
                        "wrapper": {
                            "width": "",
                            "class": "",
                            "id": ""
                        },
                        "default_value": "",
                        "placeholder": ""
                    }
                ]
            }
        ],
        "location": [
            [
                {
                    "param": "options_page",
                    "operator": "==",
                    "value": "acf-options-baneri"
                }
            ]
        ],
        "menu_order": 0,
        "position": "normal",
        "style": "default",
        "label_placement": "top",
        "instruction_placement": "label",
        "hide_on_screen": "",
        "active": true,
        "description": ""
    },
    {
        "key": "group_5d9f2e2b2a747",
        "title": "Category image",
        "fields": [
            {
                "key": "field_5d9f2e2dbe3dc",
                "label": "Image",
                "name": "image",
                "type": "image",
                "instructions": "",
                "required": 0,
                "conditional_logic": 0,
                "wrapper": {
                    "width": "",
                    "class": "",
                    "id": ""
                },
                "return_format": "url",
                "preview_size": "medium",
                "library": "all",
                "min_width": "",
                "min_height": "",
                "min_size": "",
                "max_width": "",
                "max_height": "",
                "max_size": "",
                "mime_types": ""
            }
        ],
        "location": [
            [
                {
                    "param": "taxonomy",
                    "operator": "==",
                    "value": "category"
                }
            ]
        ],
        "menu_order": 0,
        "position": "normal",
        "style": "default",
        "label_placement": "top",
        "instruction_placement": "label",
        "hide_on_screen": "",
        "active": true,
        "description": ""
    },
    {
        "key": "group_5d9b34e1b0532",
        "title": "Featured video",
        "fields": [
            {
                "key": "field_5d9b351818404",
                "label": "Video url",
                "name": "video_url",
                "type": "url",
                "instructions": "",
                "required": 0,
                "conditional_logic": 0,
                "wrapper": {
                    "width": "",
                    "class": "",
                    "id": ""
                },
                "default_value": "",
                "placeholder": ""
            }
        ],
        "location": [
            [
                {
                    "param": "post_category",
                    "operator": "==",
                    "value": "category:video"
                }
            ],
            [
                {
                    "param": "page_template",
                    "operator": "==",
                    "value": "template\/uradisam-template.php"
                }
            ]
        ],
        "menu_order": 0,
        "position": "side",
        "style": "default",
        "label_placement": "top",
        "instruction_placement": "label",
        "hide_on_screen": "",
        "active": true,
        "description": ""
    },
    {
        "key": "group_5d9cf9b1437f0",
        "title": "Head fields",
        "fields": [
            {
                "key": "field_5d9cfbf90d8cf",
                "label": "Google Tag Manager scripts",
                "name": "google_tag_manager_scripts",
                "type": "acf_code_field",
                "instructions": "This is a specific field for Google Tag Manager",
                "required": 0,
                "conditional_logic": 0,
                "wrapper": {
                    "width": "",
                    "class": "",
                    "id": ""
                },
                "default_value": "",
                "placeholder": "",
                "mode": "htmlmixed",
                "theme": "material"
            },
            {
                "key": "field_5d9cf9b7f9a9a",
                "label": "Inline scripts",
                "name": "head_inline_scripts",
                "type": "acf_code_field",
                "instructions": "Additional inline scripts",
                "required": 0,
                "conditional_logic": 0,
                "wrapper": {
                    "width": "",
                    "class": "",
                    "id": ""
                },
                "default_value": "",
                "placeholder": "",
                "mode": "javascript",
                "theme": "material"
            },
            {
                "key": "field_5d9cfae416b6a",
                "label": "Inline styles",
                "name": "head_inline_styles",
                "type": "acf_code_field",
                "instructions": "Additional inline styles",
                "required": 0,
                "conditional_logic": 0,
                "wrapper": {
                    "width": "",
                    "class": "",
                    "id": ""
                },
                "default_value": "",
                "placeholder": "",
                "mode": "css",
                "theme": "material"
            }
        ],
        "location": [
            [
                {
                    "param": "options_page",
                    "operator": "==",
                    "value": "theme-general-settings"
                }
            ]
        ],
        "menu_order": 0,
        "position": "normal",
        "style": "default",
        "label_placement": "top",
        "instruction_placement": "label",
        "hide_on_screen": "",
        "active": true,
        "description": ""
    },
    {
        "key": "group_5d91c2217bf3e",
        "title": "Social Media",
        "fields": [
            {
                "key": "field_5d91c2f9f2589",
                "label": "Links",
                "name": "links",
                "type": "group",
                "instructions": "",
                "required": 0,
                "conditional_logic": 0,
                "wrapper": {
                    "width": "",
                    "class": "",
                    "id": ""
                },
                "layout": "block",
                "sub_fields": [
                    {
                        "key": "field_5d91c22252936",
                        "label": "Facebook",
                        "name": "facebook",
                        "type": "url",
                        "instructions": "",
                        "required": 0,
                        "conditional_logic": 0,
                        "wrapper": {
                            "width": "",
                            "class": "",
                            "id": ""
                        },
                        "default_value": "",
                        "placeholder": ""
                    },
                    {
                        "key": "field_5d91c25052937",
                        "label": "Twitter",
                        "name": "twitter",
                        "type": "url",
                        "instructions": "",
                        "required": 0,
                        "conditional_logic": 0,
                        "wrapper": {
                            "width": "",
                            "class": "",
                            "id": ""
                        },
                        "default_value": "",
                        "placeholder": ""
                    },
                    {
                        "key": "field_5d91c25d52938",
                        "label": "Instagram",
                        "name": "instagram",
                        "type": "text",
                        "instructions": "",
                        "required": 0,
                        "conditional_logic": 0,
                        "wrapper": {
                            "width": "",
                            "class": "",
                            "id": ""
                        },
                        "default_value": "",
                        "placeholder": "",
                        "prepend": "",
                        "append": "",
                        "maxlength": ""
                    },
                    {
                        "key": "field_5d91c26452939",
                        "label": "YouTube",
                        "name": "youtube",
                        "type": "text",
                        "instructions": "",
                        "required": 0,
                        "conditional_logic": 0,
                        "wrapper": {
                            "width": "",
                            "class": "",
                            "id": ""
                        },
                        "default_value": "",
                        "placeholder": "",
                        "prepend": "",
                        "append": "",
                        "maxlength": ""
                    }
                ]
            }
        ],
        "location": [
            [
                {
                    "param": "options_page",
                    "operator": "==",
                    "value": "theme-general-settings"
                }
            ]
        ],
        "menu_order": 0,
        "position": "normal",
        "style": "default",
        "label_placement": "top",
        "instruction_placement": "label",
        "hide_on_screen": "",
        "active": true,
        "description": ""
    },
    {
        "key": "group_5d9d94313698c",
        "title": "Widget  - GTag",
        "fields": [
            {
                "key": "field_5d9d9442ddf62",
                "label": "Message",
                "name": "",
                "type": "message",
                "instructions": "",
                "required": 0,
                "conditional_logic": 0,
                "wrapper": {
                    "width": "",
                    "class": "",
                    "id": ""
                },
                "message": "Ovaj vidžet islistava reklame sa Google Tag-a. Bilo koji unos se vrši u sidebar-u <strong>options > baneri<\/strong>",
                "new_lines": "wpautop",
                "esc_html": 0
            }
        ],
        "location": [
            [
                {
                    "param": "widget",
                    "operator": "==",
                    "value": "acf_widget_91682"
                }
            ]
        ],
        "menu_order": 0,
        "position": "normal",
        "style": "default",
        "label_placement": "top",
        "instruction_placement": "label",
        "hide_on_screen": "",
        "active": true,
        "description": ""
    },
    {
        "key": "group_5d8e2365a3fe7",
        "title": "Widget - Najnoviji clanci",
        "fields": [
            {
                "key": "field_5d8e236e7aa9a",
                "label": "Naslov",
                "name": "widget_latest_posts_title",
                "type": "text",
                "instructions": "",
                "required": 0,
                "conditional_logic": 0,
                "wrapper": {
                    "width": "",
                    "class": "",
                    "id": ""
                },
                "default_value": "",
                "placeholder": "",
                "prepend": "",
                "append": "",
                "maxlength": ""
            },
            {
                "key": "field_5d8e23887aa9b",
                "label": "Broj članaka",
                "name": "widget_latest_posts_number",
                "type": "select",
                "instructions": "",
                "required": 0,
                "conditional_logic": 0,
                "wrapper": {
                    "width": "",
                    "class": "",
                    "id": ""
                },
                "choices": {
                    "3": "3",
                    "6": "6",
                    "9": "9"
                },
                "default_value": [
                    6
                ],
                "allow_null": 0,
                "multiple": 0,
                "ui": 1,
                "ajax": 0,
                "return_format": "value",
                "placeholder": ""
            }
        ],
        "location": [
            [
                {
                    "param": "widget",
                    "operator": "==",
                    "value": "acf_widget_91623"
                }
            ]
        ],
        "menu_order": 0,
        "position": "normal",
        "style": "default",
        "label_placement": "top",
        "instruction_placement": "label",
        "hide_on_screen": "",
        "active": true,
        "description": ""
    },
    {
        "key": "group_5d9b1aa9f1aa4",
        "title": "Widget - Promotivni Članak",
        "fields": [
            {
                "key": "field_5d9b1ab64644f",
                "label": "Članak",
                "name": "promo_post",
                "type": "post_object",
                "instructions": "",
                "required": 0,
                "conditional_logic": 0,
                "wrapper": {
                    "width": "",
                    "class": "",
                    "id": ""
                },
                "post_type": [
                    "post"
                ],
                "taxonomy": "",
                "allow_null": 0,
                "multiple": 0,
                "return_format": "object",
                "ui": 1
            }
        ],
        "location": [
            [
                {
                    "param": "widget",
                    "operator": "==",
                    "value": "acf_widget_91655"
                }
            ]
        ],
        "menu_order": 0,
        "position": "normal",
        "style": "default",
        "label_placement": "top",
        "instruction_placement": "label",
        "hide_on_screen": "",
        "active": true,
        "description": ""
    },
    {
        "key": "group_5d9d957720466",
        "title": "Widget - Reklame",
        "fields": [
            {
                "key": "field_5d9d957e98cdc",
                "label": "Message",
                "name": "",
                "type": "message",
                "instructions": "",
                "required": 0,
                "conditional_logic": 0,
                "wrapper": {
                    "width": "",
                    "class": "",
                    "id": ""
                },
                "message": "Ovaj vidžet islistava reklame sa <strong>Options<\/strong> strane. Bilo koji unos se vrši u sidebar-u <strong>options > baneri<\/strong>",
                "new_lines": "wpautop",
                "esc_html": 0
            }
        ],
        "location": [
            [
                {
                    "param": "widget",
                    "operator": "==",
                    "value": "acf_widget_91627"
                }
            ]
        ],
        "menu_order": 0,
        "position": "normal",
        "style": "default",
        "label_placement": "top",
        "instruction_placement": "label",
        "hide_on_screen": "",
        "active": true,
        "description": ""
    }
]